<?xml version="1.0" encoding="UTF-8"?>
<svg xmlns="http://www.w3.org/2000/svg" xmlns:xlink="http://www.w3.org/1999/xlink" viewBox="0 0 24 24" width="24px" height="24px">
<g id="surface40003436">
<path style=" stroke:none;fill-rule:nonzero;fill:rgb(100%,100%,100%);fill-opacity:1;" d="M 17.523438 9 L 14 9 L 14 7 C 14 5.96875 14.085938 5.316406 15.5625 5.316406 L 17.429688 5.316406 L 17.429688 2.136719 C 16.523438 2.042969 15.609375 1.996094 14.691406 2 C 11.980469 2 10 3.65625 10 6.699219 L 10 9 L 7 9 L 7 13 L 10 13 L 10 22 L 14 22 L 14 12.996094 L 17.066406 12.996094 Z M 17.523438 9 "/>
</g>
</svg>
